…
Mean total number of steps
--------------------------

You can also embed plots, for example:

``` r
dailySteps <- data2 %>%
  group_by(date) %>%
  summarise(TotalSteps = sum(steps))
dailySteps
```

    ## # A tibble: 53 x 2
    ##          date TotalSteps
    ##        <date>      <int>
    ##  1 2012-10-02        126
    ##  2 2012-10-03      11352
    ##  3 2012-10-04      12116
    ##  4 2012-10-05      13294
    ##  5 2012-10-06      15420
    ##  6 2012-10-07      11015
    ##  7 2012-10-09      12811
    ##  8 2012-10-10       9900
    ##  9 2012-10-11      10304
    ## 10 2012-10-12      17382
    ## # ... with 43 more rows
…
``` r
stepsTSeries <- xts(dailySteps$TotalSteps, order.by = dailySteps$date)
```

The average number of steps is 10766.19. The median number of steps is 10765.

``` r
intervalTSeries <- data2 %>%
  group_by(interval) %>%
  summarise(AvgSteps = mean(steps))
intervalTSeries
```

    ## # A tibble: 288 x 2
    ##    interval  AvgSteps
    ##       <int>     <dbl>
    ##  1        0 1.7169811
    ##  2        5 0.3396226
    ##  3       10 0.1320755
    ##  4       15 0.1509434
    ##  5       20 0.0754717
    ##  6       25 2.0943396
    ##  7       30 0.5283019
    ##  8       35 0.8679245
    ##  9       40 0.0000000
    ## 10       45 1.4716981
    ## # ... with 278 more rows
…
filledDataNas <- sum(is.na(filledData$steps))
filledDataNas
```

    ## [1] 0

``` r
dailySteps2 <- filledData %>%
  group_by(date) %>%
  summarise(TotalSteps = sum(steps))
dailySteps2
```

    ## # A tibble: 61 x 2
    ##          date TotalSteps
    ##        <fctr>      <dbl>
    ##  1 2012-10-01   10766.19
    ##  2 2012-10-02     126.00
    ##  3 2012-10-03   11352.00
    ##  4 2012-10-04   12116.00
    ##  5 2012-10-05   13294.00
    ##  6 2012-10-06   15420.00
    ##  7 2012-10-07   11015.00
    ##  8 2012-10-08   10766.19
    ##  9 2012-10-09   12811.00
    ## 10 2012-10-10    9900.00
    ## # ... with 51 more rows
…
``` r
filledData$date <- as.Date(filledData$date)
filledData$Day <- weekdays(filledData$date)


filledData$dtype <- 'weekday'
filledData$dtype[filledData$Day %in% c('Saturday', 'Sunday')] <- 'weekend'

avgDay <- filledData %>%
  group_by(dtype, interval) %>%
  summarise(AvgSteps = mean(steps))
avgDay
```

    ## # A tibble: 576 x 3
    ## # Groups:   dtype [?]
    ##      dtype interval AvgSteps
    ##      <chr>    <int>    <dbl>
    ##  1 weekday        0 7.006569
    ##  2 weekday        5 5.384347
    ##  3 weekday       10 5.139902
    ##  4 weekday       15 5.162124
    ##  5 weekday       20 5.073235
    ##  6 weekday       25 6.295458
    ##  7 weekday       30 5.606569
    ##  8 weekday       35 6.006569
    ##  9 weekday       40 4.984347
    ## 10 weekday       45 6.584347
    ## # ... with 566 more rows
…
